{
	"additionalNodes": [],
	"additionalParameters": {
		"root": {
			"height": 88,
			"width": 180
		}
	},
	"inputs": [],
	"outputs": [],
	"properties": {
		"4XKyv4U75F9keAVyIOW2GrUdMm7YJLrF": {
			"height": 60,
			"title": "repeat",
			"width": 131,
			"x": 1601,
			"y": 493
		},
		"88U1JRMjQrFxgH9eVFSG14mRoEXoHrjH": {
			"height": 94,
			"title": "nota_adam_frey_hlaa.MoveSwarm",
			"width": 283,
			"x": 2047,
			"y": 247
		},
		"8CaHzc3lX0Pp3Lz1r9VbiKZgNMvjebHe": {
			"height": 72,
			"title": "wait",
			"width": 131,
			"x": 2451,
			"y": 222
		},
		"AS6obrueKiNdFf44ENuOyf6c1nFFPbZe": {
			"height": 60,
			"title": "repeat",
			"width": 131,
			"x": 1443,
			"y": 187
		},
		"B65IoiAHQ72YYhJNbtorRj45PHFXbPJA": {
			"height": 130,
			"title": "reference",
			"width": 304,
			"x": 2211,
			"y": -298
		},
		"BdVIq9FQ9fNzBgPBicRHrBW7tSfKXavt": {
			"height": 90,
			"title": "luaCondition",
			"width": 408,
			"x": 1739,
			"y": -29
		},
		"C0kIAZ2ElNeJEwRNuqoidMb5hBzpusyL": {
			"height": 70,
			"title": "parallel",
			"width": 202,
			"x": 831,
			"y": 189
		},
		"ClJvYQVB7womC7VCAZ6uOHQw81p2IpcO": {
			"height": 60,
			"title": "repeat",
			"width": 131,
			"x": 895,
			"y": -7
		},
		"DH3ZLjxdYodAgj64mykXIbPyFaz4HWKE": {
			"height": 60,
			"title": "sequence",
			"width": 143,
			"x": 847,
			"y": -257
		},
		"DMu45qErOQLVeH85RRHULcLdM1SHlQpM": {
			"height": 90,
			"title": "luaCondition",
			"width": 194,
			"x": 1359,
			"y": -7
		},
		"DXzsT4bYfLbGd0DTH66ZDoBhDXFk33eU": {
			"height": 94,
			"title": "nota_adam_frey_hlaa.MoveSwarm",
			"width": 283,
			"x": 2415,
			"y": 551
		},
		"ELWLaVhfZh2O5BihoncQJJedbN6a1J4z": {
			"height": 94,
			"title": "store",
			"width": 209,
			"x": 1558,
			"y": -384
		},
		"ES3ywZLz7OBJ1dyCWIEdDWXHEjpqdFm1": {
			"height": 94,
			"title": "store",
			"width": 325,
			"x": 1704,
			"y": 807
		},
		"EaumfzzEKWi94tfUMS5pK03SPkkyBzIy": {
			"height": 60,
			"title": "repeat",
			"width": 131,
			"x": 663,
			"y": 185
		},
		"GEYMWGCdWJxLXKVbqRKUnvxua3vST20z": {
			"height": 90,
			"title": "luaCondition",
			"width": 194,
			"x": 1288,
			"y": -118
		},
		"HwFBMzMXxzFR9eSDHuwDKqKcssO8lV1o": {
			"height": 92,
			"title": "store",
			"width": 484,
			"x": 1002,
			"y": -381
		},
		"IUuB1kO9rmoUhzzau4xmZL3jLbCGPJs7": {
			"height": 72,
			"title": "waitUntil",
			"width": 218,
			"x": 2657,
			"y": 665
		},
		"IpwGRndzme2DCntPOjmsmxy5DfJj9gdB": {
			"height": 92,
			"title": "nota_adam_frey_hlaa.ReclaimOnPath",
			"width": 303,
			"x": 2386,
			"y": 434
		},
		"IqkpxirvLbbEUrspuYCcJiM6rhiGmSa8": {
			"height": 72,
			"title": "waitUntil",
			"width": 171,
			"x": 2720,
			"y": 302
		},
		"J59TfXsImGcTuOsiVrKMPFzLoHp8Cfz9": {
			"height": 60,
			"title": "sequence",
			"width": 143,
			"x": 2356,
			"y": 657
		},
		"JoKZIqEvXSNhWzBUEgRj2Hhc4pASMyFT": {
			"height": 94,
			"title": "nota_adam_frey_hlaa.MoveSwarm",
			"width": 283,
			"x": 2719,
			"y": 383
		},
		"KOL2QNwZZlLQ1xa6cJItfHDNcesvCwkg": {
			"height": 60,
			"title": "repeat",
			"width": 131,
			"x": 1599,
			"y": 416
		},
		"LDw4YDUSkZrWJkzxROXCvpYSCIb0G68K": {
			"height": 60,
			"title": "repeat",
			"width": 131,
			"x": 1103,
			"y": -267
		},
		"NqOuyzXZoWE9a4v7Zeqpdw2OUE1uyYAI": {
			"height": 60,
			"title": "repeat",
			"width": 131,
			"x": 1100,
			"y": 112
		},
		"OdqWpZL0vWH4TCv7vZt8tRQInXRIqNUr": {
			"height": 60,
			"title": "sequence",
			"width": 143,
			"x": 2238,
			"y": 152
		},
		"Q0i7ab32W0JNtprSwPuaoOZnkkNnTn1J": {
			"height": 130,
			"title": "reference",
			"width": 304,
			"x": 2528,
			"y": -215
		},
		"QWu8CJDGhNnQs8nUI45M3WjnrnJ5QDTX": {
			"height": 92,
			"title": "nota_adam_frey_hlaa.UpgradeLine",
			"width": 286,
			"x": 2448,
			"y": 122
		},
		"QrYyuxF8A6bMSfHHTjybimt7WzNb2i1D": {
			"height": 94,
			"title": "store",
			"width": 198,
			"x": 990,
			"y": -477
		},
		"RKV9PlLsyn63TkGGJe5gDF3dQZStHc0E": {
			"height": 90,
			"title": "luaCondition",
			"width": 409,
			"x": 1740,
			"y": -205
		},
		"RWaVgf742D4xPbNj38XWobNaj31Nj8uw": {
			"height": 90,
			"title": "luaCondition",
			"width": 408,
			"x": 1737,
			"y": -115
		},
		"TqDtfn3M0FA2YTAQF4WjY2S6oIgdxNHp": {
			"height": 60,
			"title": "repeat",
			"width": 131,
			"x": 1381,
			"y": 843
		},
		"TsD1QBPyGpvaq5AFln39m7DdauNP777v": {
			"height": 90,
			"title": "luaCondition",
			"width": 194,
			"x": 1060,
			"y": -192
		},
		"UpLwWGutsRQ7zJ3jBAkFtKXl7BytRCVz": {
			"height": 130,
			"title": "reference",
			"width": 304,
			"x": 2202,
			"y": -11
		},
		"VLahw2odCzfPkBmWoBxRzUeeVEOisgbp": {
			"height": 94,
			"title": "store",
			"width": 405,
			"x": 1632,
			"y": 181
		},
		"VjYg7hmw1z3IBma8A4K4f4U8wA6TiHoS": {
			"height": 90,
			"title": "luaCondition",
			"width": 194,
			"x": 422,
			"y": 165
		},
		"VpodLFV5TVYgJLJ3BeDL0XMRUDT10eyI": {
			"height": 60,
			"title": "sequence",
			"width": 143,
			"x": 1353,
			"y": -269
		},
		"W1wIKjFEsGJPgYx7UvWbmIRMisNVwe3V": {
			"height": 90,
			"title": "luaCondition",
			"width": 194,
			"x": 1101,
			"y": 300
		},
		"XvGLU1pI7mo0Bu9xSWwQY4jsxNW4vQ02": {
			"height": 60,
			"title": "repeat",
			"width": 131,
			"x": 1602,
			"y": 335
		},
		"YZpi3mBbEGFVTkF9vstDIxUO4SIXynWn": {
			"height": 90,
			"title": "luaCondition",
			"width": 307,
			"x": 2043,
			"y": 439
		},
		"cX73nC0U9zk7X3ycK94HJgX0X8WwVtL9": {
			"height": 72,
			"title": "wait",
			"width": 131,
			"x": 1342,
			"y": 757
		},
		"d1BOXHZNfbgFOAo395F9B0oynzURsHch": {
			"height": 94,
			"title": "store",
			"width": 271,
			"x": 1341,
			"y": 652
		},
		"emCNpyuioZxnog2GU0TpSt9IyYF9sg3v": {
			"height": 88,
			"title": "luaCondition",
			"width": 214,
			"x": 1467,
			"y": 99
		},
		"essfrTvdUvn24ZxqdN1uT5m5w61KlfQn": {
			"height": 72,
			"title": "wait",
			"width": 138,
			"x": 1588,
			"y": -276
		},
		"f3xKphjaLMOwkRrqZVnswM9OvLaln1b4": {
			"height": 130,
			"title": "reference",
			"width": 304,
			"x": 2210,
			"y": -154
		},
		"fmzW6FQ8daZevUOSwjuHfbFNT3P9yR9P": {
			"height": 70,
			"title": "parallel",
			"width": 202,
			"x": 254,
			"y": 10
		},
		"g1K3nYgGJmgkWZ5IqZhGyp9vBs6d2Gkq": {
			"height": 70,
			"title": "parallel",
			"width": 202,
			"x": 1320,
			"y": 302
		},
		"l4sA4hbIw1WUirGDknOoCUgunelE2Ip5": {
			"height": 60,
			"title": "sequence",
			"width": 143,
			"x": 1280,
			"y": 101
		},
		"rRkylVCNfRUihjR2WAkqLx5wuscVPvSu": {
			"height": 92,
			"title": "nota_adam_frey_hlaa.AttackPos",
			"width": 267,
			"x": 2659,
			"y": 740
		},
		"rcAhwrdfQqGPoRid4h09RhTxx5pYFQOh": {
			"height": 94,
			"title": "store",
			"width": 330,
			"x": 1687,
			"y": 909
		},
		"rjRDTdYiX9c0H0hjSSdui95oIOqembMe": {
			"height": 94,
			"title": "store",
			"width": 388,
			"x": 1350,
			"y": 559
		},
		"tpHPJPPE2JqlWEY5NvkS5GbzdV1VCXZb": {
			"height": 90,
			"title": "luaCondition",
			"width": 468,
			"x": 1829,
			"y": 553
		},
		"uqoIZnfUmoui5WohAeM1hV1hp2sCheXz": {
			"height": 94,
			"title": "nota_adam_frey_hlaa.MoveSwarm",
			"width": 283,
			"x": 2046,
			"y": 336
		},
		"uxynpUZsUyAuoh9CcaIIu3pIK1RK7xe6": {
			"height": 60,
			"title": "repeat",
			"width": 131,
			"x": 791,
			"y": -464
		},
		"wj9axs4gGM6LUGs53SRUdhDRfCb9weus": {
			"height": 90,
			"title": "luaCondition",
			"width": 438,
			"x": 1755,
			"y": 145
		},
		"y4zmkhRc9zRFDBeVf7frjaWWBiO4f6fJ": {
			"height": 60,
			"title": "sequence",
			"width": 143,
			"x": 1524,
			"y": 842
		},
		"yCGZdJgic67FngYRoVegyoGfcO0zcyGK": {
			"height": 90,
			"title": "luaCondition",
			"width": 408,
			"x": 1752,
			"y": 55
		},
		"yffrkBogiFFgfA93bGMCk2gB3ghIasor": {
			"height": 60,
			"title": "repeat",
			"width": 131,
			"x": 1584,
			"y": 244
		},
		"zSI0hMy7WFgBq00IgPe1dOo5rsLvvxU5": {
			"height": 60,
			"title": "sequence",
			"width": 143,
			"x": 2409,
			"y": 328
		}
	},
	"roles": [ {
		"categories": [],
		"name": "Role 0"
	} ],
	"root": {
		"children": [ {
			"children": [ {
				"children": [],
				"id": "QrYyuxF8A6bMSfHHTjybimt7WzNb2i1D",
				"nodeType": "luaCommand",
				"parameters": [ {
					"name": "var",
					"value": "mi"
				}, {
					"name": "value",
					"value": "core.MissionInfo()"
				}, {
					"name": "scriptName",
					"value": "store"
				} ],
				"scriptName": "store"
			} ],
			"id": "uxynpUZsUyAuoh9CcaIIu3pIK1RK7xe6",
			"nodeType": "repeat",
			"parameters": []
		}, {
			"children": [ {
				"children": [],
				"id": "HwFBMzMXxzFR9eSDHuwDKqKcssO8lV1o",
				"nodeType": "luaCommand",
				"parameters": [ {
					"name": "var",
					"value": "groups"
				}, {
					"name": "value",
					"value": "{[\"atlas\"]={},[\"box\"]={},[\"farck\"]={},[\"art\"]={},[\"zeus\"]={},[\"spy\"]={}}"
				}, {
					"name": "scriptName",
					"value": "store"
				} ],
				"scriptName": "store"
			}, {
				"children": [ {
					"children": [ {
						"children": [],
						"id": "ELWLaVhfZh2O5BihoncQJJedbN6a1J4z",
						"nodeType": "luaCommand",
						"parameters": [ {
							"name": "var",
							"value": "groups"
						}, {
							"name": "value",
							"value": "DivideUnits(groups)"
						}, {
							"name": "scriptName",
							"value": "store"
						} ],
						"scriptName": "store"
					}, {
						"children": [],
						"id": "essfrTvdUvn24ZxqdN1uT5m5w61KlfQn",
						"nodeType": "wait",
						"parameters": [ {
							"name": "time",
							"value": 1
						} ]
					} ],
					"id": "VpodLFV5TVYgJLJ3BeDL0XMRUDT10eyI",
					"nodeType": "sequence",
					"parameters": []
				} ],
				"id": "LDw4YDUSkZrWJkzxROXCvpYSCIb0G68K",
				"nodeType": "repeat",
				"parameters": []
			} ],
			"id": "DH3ZLjxdYodAgj64mykXIbPyFaz4HWKE",
			"nodeType": "sequence",
			"parameters": []
		}, {
			"children": [ {
				"children": [ {
					"children": [ {
						"children": [],
						"id": "B65IoiAHQ72YYhJNbtorRj45PHFXbPJA",
						"nodeType": "reference",
						"parameters": [ {
							"name": "behaviourName",
							"value": "nota_adam_frey_hlaa.buy_checked"
						} ],
						"referenceInputs": [ {
							"name": "name",
							"value": "\"armzeus\""
						} ],
						"referenceOutputs": []
					} ],
					"id": "RKV9PlLsyn63TkGGJe5gDF3dQZStHc0E",
					"nodeType": "luaCondition",
					"parameters": [ {
						"name": "expression",
						"value": "core.TeamMetal()[\"currentLevel\"] >= mi[\"buy\"][\"armzeus\"]"
					}, {
						"name": "repeat",
						"value": "false"
					} ]
				}, {
					"children": [ {
						"children": [ {
							"children": [],
							"id": "Q0i7ab32W0JNtprSwPuaoOZnkkNnTn1J",
							"nodeType": "reference",
							"parameters": [ {
								"name": "behaviourName",
								"value": "nota_adam_frey_hlaa.buy_checked"
							} ],
							"referenceInputs": [ {
								"name": "name",
								"value": "\"armspy\""
							} ],
							"referenceOutputs": []
						} ],
						"id": "RWaVgf742D4xPbNj38XWobNaj31Nj8uw",
						"nodeType": "luaCondition",
						"parameters": [ {
							"name": "expression",
							"value": "core.TeamMetal()[\"currentLevel\"] >= mi[\"buy\"][\"armspy\"]"
						}, {
							"name": "repeat",
							"value": "false"
						} ]
					}, {
						"children": [ {
							"children": [ {
								"children": [],
								"id": "UpLwWGutsRQ7zJ3jBAkFtKXl7BytRCVz",
								"nodeType": "reference",
								"parameters": [ {
									"name": "behaviourName",
									"value": "nota_adam_frey_hlaa.buy_checked"
								} ],
								"referenceInputs": [ {
									"name": "name",
									"value": "\"armmart\""
								} ],
								"referenceOutputs": []
							} ],
							"id": "yCGZdJgic67FngYRoVegyoGfcO0zcyGK",
							"nodeType": "luaCondition",
							"parameters": [ {
								"name": "expression",
								"value": "core.TeamMetal()[\"currentLevel\"] >= mi[\"buy\"][\"armmart\"]"
							}, {
								"name": "repeat",
								"value": "false"
							} ]
						}, {
							"children": [ {
								"children": [ {
									"children": [],
									"id": "f3xKphjaLMOwkRrqZVnswM9OvLaln1b4",
									"nodeType": "reference",
									"parameters": [ {
										"name": "behaviourName",
										"value": "nota_adam_frey_hlaa.buy_checked"
									} ],
									"referenceInputs": [ {
										"name": "name",
										"value": "\"armfark\""
									} ],
									"referenceOutputs": []
								} ],
								"id": "BdVIq9FQ9fNzBgPBicRHrBW7tSfKXavt",
								"nodeType": "luaCondition",
								"parameters": [ {
									"name": "expression",
									"value": "core.TeamMetal()[\"currentLevel\"] >= mi[\"buy\"][\"armfark\"]"
								}, {
									"name": "repeat",
									"value": "false"
								} ]
							}, {
								"children": [ {
									"children": [ {
										"children": [],
										"id": "QWu8CJDGhNnQs8nUI45M3WjnrnJ5QDTX",
										"nodeType": "luaCommand",
										"parameters": [ {
											"name": "lineName",
											"value": "\"GoodMiddle\""
										}, {
											"name": "upgradeLevel",
											"value": "5"
										}, {
											"name": "scriptName",
											"value": "nota_adam_frey_hlaa.UpgradeLine"
										} ],
										"scriptName": "nota_adam_frey_hlaa.UpgradeLine"
									}, {
										"children": [],
										"id": "8CaHzc3lX0Pp3Lz1r9VbiKZgNMvjebHe",
										"nodeType": "wait",
										"parameters": [ {
											"name": "time",
											"value": 1
										} ]
									} ],
									"id": "OdqWpZL0vWH4TCv7vZt8tRQInXRIqNUr",
									"nodeType": "sequence",
									"parameters": []
								} ],
								"id": "wj9axs4gGM6LUGs53SRUdhDRfCb9weus",
								"nodeType": "luaCondition",
								"parameters": [ {
									"name": "expression",
									"value": "core.TeamMetal()[\"currentLevel\"] >= 5*mi[\"upgrade\"][\"line\"]"
								}, {
									"name": "repeat",
									"value": "false"
								} ]
							} ],
							"id": "emCNpyuioZxnog2GU0TpSt9IyYF9sg3v",
							"nodeType": "luaCondition",
							"parameters": [ {
								"name": "expression",
								"value": "#groups[\"farck\"] < 6"
							}, {
								"name": "repeat",
								"value": "false"
							} ]
						} ],
						"id": "DMu45qErOQLVeH85RRHULcLdM1SHlQpM",
						"nodeType": "luaCondition",
						"parameters": [ {
							"name": "expression",
							"value": "#groups[\"art\"] < 20"
						}, {
							"name": "repeat",
							"value": "false"
						} ]
					} ],
					"id": "GEYMWGCdWJxLXKVbqRKUnvxua3vST20z",
					"nodeType": "luaCondition",
					"parameters": [ {
						"name": "expression",
						"value": "#groups[\"spy\"] < 1"
					}, {
						"name": "repeat",
						"value": "false"
					} ]
				} ],
				"id": "TsD1QBPyGpvaq5AFln39m7DdauNP777v",
				"nodeType": "luaCondition",
				"parameters": [ {
					"name": "expression",
					"value": "#groups[\"zeus\"] < 7"
				}, {
					"name": "repeat",
					"value": "false"
				} ]
			} ],
			"id": "ClJvYQVB7womC7VCAZ6uOHQw81p2IpcO",
			"nodeType": "repeat",
			"parameters": []
		}, {
			"children": [ {
				"children": [ {
					"children": [ {
						"children": [ {
							"children": [ {
								"children": [],
								"id": "rjRDTdYiX9c0H0hjSSdui95oIOqembMe",
								"nodeType": "luaCommand",
								"parameters": [ {
									"name": "var",
									"value": "mid"
								}, {
									"name": "value",
									"value": "core.MissionInfo()[\"corridors\"][\"Middle\"][\"points\"]"
								}, {
									"name": "scriptName",
									"value": "store"
								} ],
								"scriptName": "store"
							}, {
								"children": [],
								"id": "d1BOXHZNfbgFOAo395F9B0oynzURsHch",
								"nodeType": "luaCommand",
								"parameters": [ {
									"name": "var",
									"value": "p"
								}, {
									"name": "value",
									"value": "GetPointOnLane(mid)"
								}, {
									"name": "scriptName",
									"value": "store"
								} ],
								"scriptName": "store"
							}, {
								"children": [],
								"id": "cX73nC0U9zk7X3ycK94HJgX0X8WwVtL9",
								"nodeType": "wait",
								"parameters": [ {
									"name": "time",
									"value": 10
								} ]
							} ],
							"id": "l4sA4hbIw1WUirGDknOoCUgunelE2Ip5",
							"nodeType": "sequence",
							"parameters": []
						} ],
						"id": "NqOuyzXZoWE9a4v7Zeqpdw2OUE1uyYAI",
						"nodeType": "repeat",
						"parameters": []
					}, {
						"children": [ {
							"children": [ {
								"children": [ {
									"children": [],
									"id": "VLahw2odCzfPkBmWoBxRzUeeVEOisgbp",
									"nodeType": "luaCommand",
									"parameters": [ {
										"name": "var",
										"value": "dist"
									}, {
										"name": "value",
										"value": "GetLowestDist(groups[\"art\"],p+Vec3(-750,0,-250)) "
									}, {
										"name": "scriptName",
										"value": "store"
									} ],
									"scriptName": "store"
								} ],
								"id": "AS6obrueKiNdFf44ENuOyf6c1nFFPbZe",
								"nodeType": "repeat",
								"parameters": []
							}, {
								"children": [ {
									"children": [],
									"id": "88U1JRMjQrFxgH9eVFSG14mRoEXoHrjH",
									"nodeType": "luaCommand",
									"parameters": [ {
										"name": "units",
										"value": "groups[\"spy\"]"
									}, {
										"name": "pos",
										"value": "p+Vec3(700,0,-60)"
									}, {
										"name": "scriptName",
										"value": "nota_adam_frey_hlaa.MoveSwarm"
									} ],
									"scriptName": "nota_adam_frey_hlaa.MoveSwarm"
								} ],
								"id": "yffrkBogiFFgfA93bGMCk2gB3ghIasor",
								"nodeType": "repeat",
								"parameters": []
							}, {
								"children": [ {
									"children": [],
									"id": "uqoIZnfUmoui5WohAeM1hV1hp2sCheXz",
									"nodeType": "luaCommand",
									"parameters": [ {
										"name": "units",
										"value": "groups[\"zeus\"]"
									}, {
										"name": "pos",
										"value": "p+Vec3(-720,0,-260)"
									}, {
										"name": "scriptName",
										"value": "nota_adam_frey_hlaa.MoveSwarm"
									} ],
									"scriptName": "nota_adam_frey_hlaa.MoveSwarm"
								} ],
								"id": "XvGLU1pI7mo0Bu9xSWwQY4jsxNW4vQ02",
								"nodeType": "repeat",
								"parameters": []
							}, {
								"children": [ {
									"children": [ {
										"children": [ {
											"children": [],
											"id": "IqkpxirvLbbEUrspuYCcJiM6rhiGmSa8",
											"nodeType": "luaCommand",
											"parameters": [ {
												"name": "condition",
												"value": "mid ~= nil"
											}, {
												"name": "scriptName",
												"value": "waitUntil"
											} ],
											"scriptName": "waitUntil"
										}, {
											"children": [],
											"id": "JoKZIqEvXSNhWzBUEgRj2Hhc4pASMyFT",
											"nodeType": "luaCommand",
											"parameters": [ {
												"name": "units",
												"value": "groups[\"farck\"]"
											}, {
												"name": "pos",
												"value": "p + Vec3(-800,0,800)"
											}, {
												"name": "scriptName",
												"value": "nota_adam_frey_hlaa.MoveSwarm"
											} ],
											"scriptName": "nota_adam_frey_hlaa.MoveSwarm"
										} ],
										"id": "zSI0hMy7WFgBq00IgPe1dOo5rsLvvxU5",
										"nodeType": "sequence",
										"parameters": []
									}, {
										"children": [],
										"id": "IpwGRndzme2DCntPOjmsmxy5DfJj9gdB",
										"nodeType": "luaCommand",
										"parameters": [ {
											"name": "units",
											"value": "groups[\"farck\"]"
										}, {
											"name": "path",
											"value": "mid"
										}, {
											"name": "scriptName",
											"value": "nota_adam_frey_hlaa.ReclaimOnPath"
										} ],
										"scriptName": "nota_adam_frey_hlaa.ReclaimOnPath"
									} ],
									"id": "YZpi3mBbEGFVTkF9vstDIxUO4SIXynWn",
									"nodeType": "luaCondition",
									"parameters": [ {
										"name": "expression",
										"value": "GetLowestDist(groups[\"farck\"],p) <= 1200"
									}, {
										"name": "repeat",
										"value": "true"
									} ]
								} ],
								"id": "KOL2QNwZZlLQ1xa6cJItfHDNcesvCwkg",
								"nodeType": "repeat",
								"parameters": []
							}, {
								"children": [ {
									"children": [ {
										"children": [],
										"id": "DXzsT4bYfLbGd0DTH66ZDoBhDXFk33eU",
										"nodeType": "luaCommand",
										"parameters": [ {
											"name": "units",
											"value": "groups[\"art\"]"
										}, {
											"name": "pos",
											"value": "p+Vec3(-750,0,-250)"
										}, {
											"name": "scriptName",
											"value": "nota_adam_frey_hlaa.MoveSwarm"
										} ],
										"scriptName": "nota_adam_frey_hlaa.MoveSwarm"
									}, {
										"children": [ {
											"children": [],
											"id": "IUuB1kO9rmoUhzzau4xmZL3jLbCGPJs7",
											"nodeType": "luaCommand",
											"parameters": [ {
												"name": "condition",
												"value": "attack_pos ~= nil"
											}, {
												"name": "scriptName",
												"value": "waitUntil"
											} ],
											"scriptName": "waitUntil"
										}, {
											"children": [],
											"id": "rRkylVCNfRUihjR2WAkqLx5wuscVPvSu",
											"nodeType": "luaCommand",
											"parameters": [ {
												"name": "units",
												"value": "groups[\"art\"]"
											}, {
												"name": "pos",
												"value": "attack_pos"
											}, {
												"name": "scriptName",
												"value": "nota_adam_frey_hlaa.AttackPos"
											} ],
											"scriptName": "nota_adam_frey_hlaa.AttackPos"
										} ],
										"id": "J59TfXsImGcTuOsiVrKMPFzLoHp8Cfz9",
										"nodeType": "sequence",
										"parameters": []
									} ],
									"id": "tpHPJPPE2JqlWEY5NvkS5GbzdV1VCXZb",
									"nodeType": "luaCondition",
									"parameters": [ {
										"name": "expression",
										"value": "GetLowestDist(groups[\"art\"],p+Vec3(-750,0,-250)) >= 200"
									}, {
										"name": "repeat",
										"value": "true"
									} ]
								} ],
								"id": "4XKyv4U75F9keAVyIOW2GrUdMm7YJLrF",
								"nodeType": "repeat",
								"parameters": []
							} ],
							"id": "g1K3nYgGJmgkWZ5IqZhGyp9vBs6d2Gkq",
							"nodeType": "parallel",
							"parameters": [ {
								"name": "mode",
								"value": "all-success"
							} ]
						} ],
						"id": "W1wIKjFEsGJPgYx7UvWbmIRMisNVwe3V",
						"nodeType": "luaCondition",
						"parameters": [ {
							"name": "expression",
							"value": "p ~= nil"
						}, {
							"name": "repeat",
							"value": "false"
						} ]
					}, {
						"children": [ {
							"children": [ {
								"children": [],
								"id": "ES3ywZLz7OBJ1dyCWIEdDWXHEjpqdFm1",
								"nodeType": "luaCommand",
								"parameters": [ {
									"name": "var",
									"value": "attack_pos"
								}, {
									"name": "value",
									"value": "GetBasePos(groups[\"art\"],attack_pos)"
								}, {
									"name": "scriptName",
									"value": "store"
								} ],
								"scriptName": "store"
							}, {
								"children": [],
								"id": "rcAhwrdfQqGPoRid4h09RhTxx5pYFQOh",
								"nodeType": "luaCommand",
								"parameters": [ {
									"name": "var",
									"value": "attack_pos"
								}, {
									"name": "value",
									"value": "GetBasePos(groups[\"spy\"],attack_pos)"
								}, {
									"name": "scriptName",
									"value": "store"
								} ],
								"scriptName": "store"
							} ],
							"id": "y4zmkhRc9zRFDBeVf7frjaWWBiO4f6fJ",
							"nodeType": "sequence",
							"parameters": []
						} ],
						"id": "TqDtfn3M0FA2YTAQF4WjY2S6oIgdxNHp",
						"nodeType": "repeat",
						"parameters": []
					} ],
					"id": "C0kIAZ2ElNeJEwRNuqoidMb5hBzpusyL",
					"nodeType": "parallel",
					"parameters": [ {
						"name": "mode",
						"value": "all-success"
					} ]
				} ],
				"id": "EaumfzzEKWi94tfUMS5pK03SPkkyBzIy",
				"nodeType": "repeat",
				"parameters": []
			} ],
			"id": "VjYg7hmw1z3IBma8A4K4f4U8wA6TiHoS",
			"nodeType": "luaCondition",
			"parameters": [ {
				"name": "expression",
				"value": "groups ~= nil"
			}, {
				"name": "repeat",
				"value": "false"
			} ]
		} ],
		"id": "fmzW6FQ8daZevUOSwjuHfbFNT3P9yR9P",
		"nodeType": "parallel",
		"parameters": [ {
			"name": "mode",
			"value": "all-success"
		} ]
	}
}